{
  "info": {
    "_postman_id": "84ece645-b63d-46b9-8494-55eb809ce16e",
    "name": "microblog",
    "schema":
      "https://schema.getpostman.com/json/collection/v2.1.0/collection.json"
  },
  "item": [
    {
      "name": "add post",
      "request": {
        "method": "POST",
        "header": [
          {
            "key": "Authorization",
            "value": "123"
          },
          {
            "key": "Content-Type",
            "value": "application/json"
          }
        ],
        "body": {
          "mode": "raw",
          "raw": "{\"content\":\"original\"}"
        },
        "url": {
          "raw": "https://microblog-nirwall.c9users.io/posts/",
          "protocol": "https",
          "host": ["microblog-nirwall", "c9users", "io"],
          "path": ["posts", ""]
        }
      },
      "response": []
    },
    {
      "name": "get post",
      "request": {
        "method": "GET",
        "header": [
          {
            "key": "Authorization",
            "value": "123"
          }
        ],
        "body": {
          "mode": "raw",
          "raw": ""
        },
        "url": {
          "raw": "https://microblog-nirwall.c9users.io/posts/{postId}",
          "protocol": "https",
          "host": ["microblog-nirwall", "c9users", "io"],
          "path": ["posts", "{postId}"]
        }
      },
      "response": []
    },
    {
      "name": "upvote",
      "request": {
        "method": "POST",
        "header": [
          {
            "key": "Authorization",
            "value": "123"
          },
          {
            "key": "Content-Type",
            "value": "application/json"
          }
        ],
        "body": {
          "mode": "raw",
          "raw": ""
        },
        "url": {
          "raw": "https://microblog-nirwall.c9users.io/posts/{postId}/votes/up",
          "protocol": "https",
          "host": ["microblog-nirwall", "c9users", "io"],
          "path": ["posts", "{postId}", "votes", "up"]
        }
      },
      "response": []
    },
    {
      "name": "update post",
      "request": {
        "method": "PUT",
        "header": [
          {
            "key": "Authorization",
            "value": "123"
          },
          {
            "key": "Content-Type",
            "value": "application/json"
          }
        ],
        "body": {
          "mode": "raw",
          "raw": "{\"content\":\"updated\"}"
        },
        "url": {
          "raw": "https://microblog-nirwall.c9users.io/posts/{postId}",
          "protocol": "https",
          "host": ["microblog-nirwall", "c9users", "io"],
          "path": ["posts", "{postId}"]
        }
      },
      "response": []
    },
    {
      "name": "downvote",
      "request": {
        "method": "POST",
        "header": [
          {
            "key": "Authorization",
            "value": "123"
          },
          {
            "key": "Content-Type",
            "value": "application/json"
          }
        ],
        "body": {
          "mode": "raw",
          "raw": ""
        },
        "url": {
          "raw":
            "https://microblog-nirwall.c9users.io/posts/{postId}/votes/down",
          "protocol": "https",
          "host": ["microblog-nirwall", "c9users", "io"],
          "path": ["posts", "{postId}", "votes", "down"]
        }
      },
      "response": []
    },
    {
      "name": "delete vote",
      "request": {
        "method": "DELETE",
        "header": [
          {
            "key": "Authorization",
            "value": "123"
          },
          {
            "key": "Content-Type",
            "value": "application/json"
          }
        ],
        "body": {
          "mode": "raw",
          "raw": ""
        },
        "url": {
          "raw": "https://microblog-nirwall.c9users.io/posts/{postId}/votes/",
          "protocol": "https",
          "host": ["microblog-nirwall", "c9users", "io"],
          "path": ["posts", "{postId}", "votes", ""]
        }
      },
      "response": []
    },
    {
      "name": "top list",
      "request": {
        "method": "GET",
        "header": [
          {
            "key": "Authorization",
            "value": "123"
          }
        ],
        "body": {
          "mode": "raw",
          "raw": ""
        },
        "url": {
          "raw": "https://microblog-nirwall.c9users.io/top",
          "protocol": "https",
          "host": ["microblog-nirwall", "c9users", "io"],
          "path": ["top"]
        }
      },
      "response": []
    }
  ]
}
